Реестровый номер банковской гарантии;'Номер банковской гарантии, присвоенный кредитной организацией';Дата выдачи банковской гарантии;Дата размещения;Дата обновления;Размер банковской гарантии;Наименование валюты;Наименование поставщика;ИНН поставщика;Наименование банка-гаранта;ИНН банка-гаранта;Наименование заказчика-бенефициара;ИНН заказчика-бенефициара;Вид обеспечения;Реестровый номер контракта;Номер закупки;Дата вступления в силу банковской гарантии (при наличии);Дата окончания срока действия банковской гарантии;Статус банковской гарантии
'02B15406504030150001';;01.01.2016;31.12.2015;31.12.2015;'28350.00';'Российский рубль';"'ОБЩЕСТВО С ОГРАНИЧЕННОЙ ОТВЕТСТВЕННОСТЬЮ ""ЦЕНТР КОМПЬЮТЕРНОЙ ПОМОЩИ""'";'5407045251';"'Закрытое акционерное общество ""Солид Банк""'";'4101011782';"'ФЕДЕРАЛЬНОЕ КАЗЕННОЕ УЧРЕЖДЕНИЕ ""СИБИРСКИЙ АВИАЦИОННЫЙ ПОИСКОВО-СПАСАТЕЛЬНЫЙ ЦЕНТР""'";;'Обеспечение заявки';;'0351100004615000155';;31.01.2017;'Размещено'
'0IX17203001010150020';;01.01.2016;31.12.2015;31.12.2015;'3113333.50';'Российский рубль';"'ОБЩЕСТВО С ОГРАНИЧЕННОЙ ОТВЕТСТВЕННОСТЬЮ ""ЧАСТНОЕ ОХРАННОЕ ПРЕДПРИЯТИЕ ДОЗОР""'";'7202130862';"'Публичное акционерное общество ""Западно-Сибирский коммерческий банк""'";'7202021856';"'ГОСУДАРСТВЕННОЕ БЮДЖЕТНОЕ ОБРАЗОВАТЕЛЬНОЕ УЧРЕЖДЕНИЕ ВЫСШЕГО ПРОФЕССИОНАЛЬНОГО ОБРАЗОВАНИЯ ""ТЮМЕНСКИЙ ГОСУДАРСТВЕННЫЙ МЕДИЦИНСКИЙ УНИВЕРСИТЕТ"" МИНИСТЕРСТВА ЗДРАВООХРАНЕНИЯ РОССИЙСКОЙ ФЕДЕРАЦИИ'";;'Обеспечение исполнения контракта';;'0367100010715000193';;31.01.2017;'Размещено'
'0IX15032004127150015';;01.01.2016;24.12.2015;24.12.2015;'279558.00';'Российский рубль';"'Общество с ограниченной ответственностью Частное охранное предприятие ""ПРОКСА-СБУ""'";'7724241998';"'Публичное акционерное общество ""Западно-Сибирский коммерческий банк""'";'7202021856';"'ФЕДЕРАЛЬНОЕ ГОСУДАРСТВЕННОЕ БЮДЖЕТНОЕ УЧРЕЖДЕНИЕ ДЕТСКИЙ САНАТОРИЙ ""ВАСИЛЬЕВСКОЕ"" МИНИСТЕРСТВА ЗДРАВООХРАНЕНИЯ  РОССИЙСКОЙ ФЕДЕРАЦИИ'";;'Обеспечение исполнения контракта';;'0348100013115000050';;31.01.2017;'Размещено'
